{
    "week": "41",
    "week_days": "(5.-11.10.2020)",
    "week_message": {
        "fi": "ANTELL ROUND Lounas klo 10-13.30. Olemme mukana \"Savolaisuus on makuasia\"-l\u00e4hiruokaviikossa!",
        "sv": "",
        "en": "ANTELL ROUND lunch mon-fri 10.00-13.30\r\n"
    },
    "days": {
        "languages": {
            "fi": [
                {
                    "title": "Maanantai 5.10.",
                    "title_abbr": "Ma",
                    "data": [
                        {
                            "category_title": "Salaattilounas",
                            "price": "6,90\/3,06"
                        },
                        {
                            "title": "P\u00e4iv\u00e4n salaatti linjastosta+l\u00e4mmin lis\u00e4ke",
                            "kela": "#",
                            "allergenic_ingredients": [
                                {
                                    "value": "A",
                                    "label": "A"
                                }
                            ]
                        },
                        {
                            "category_title": "Kasvislounas",
                            "price": "8,00\/3,06"
                        },
                        {
                            "title": "FALAFEL-PIHVEJ\u00c4 (L,M,G*,Veg,A), LOHKOPERUNOITA, LIME-JOGURTTIKASTIKETTA (L,G*,A)",
                            "kela": "#",
                            "allergenic_ingredients": []
                        },
                        {
                            "category_title": "Kotiruokalounas",
                            "price": "9,00\/3,06"
                        },
                        {
                            "title": "BABI-KETJAP BROILERIA (L,M,A), RIISI\u00c4",
                            "kela": "#",
                            "allergenic_ingredients": []
                        },
                        {
                            "category_title": "Makumatka",
                            "price": "10,10\/5,71"
                        },
                        {
                            "title": "YLIKYPS\u00c4\u00c4 POSSUA KARPALO-ROSMARIINIKASTIKKEELLA (L,M,G*,A), KERMAPERUNOITA (L,G*,A)",
                            "kela": "#",
                            "allergenic_ingredients": []
                        },
                        {
                            "category_title": "Buffetlounas",
                            "price": "10,70"
                        },
                        {
                            "title": "Lounasbuffet linjastosta",
                            "kela": [],
                            "allergenic_ingredients": []
                        }
                    ]
                },
                {
                    "title": "Tiistai 6.10.",
                    "title_abbr": "Ti",
                    "data": [
                        {
                            "category_title": "Salaattilounas",
                            "price": "6,90\/3,06"
                        },
                        {
                            "title": "P\u00e4iv\u00e4n salaatti linjastosta+l\u00e4mmin lis\u00e4ke",
                            "kela": "#",
                            "allergenic_ingredients": [
                                {
                                    "value": "A",
                                    "label": "A"
                                }
                            ]
                        },
                        {
                            "category_title": "Kasvislounas",
                            "price": "8,00\/3,06"
                        },
                        {
                            "title": "SIENI-KASVISKASTIKETTA (L,G*,A), PASTAA",
                            "kela": "#",
                            "allergenic_ingredients": []
                        },
                        {
                            "category_title": "Kotiruokalounas",
                            "price": "9,00\/3,06"
                        },
                        {
                            "title": "UUNIMAKKARAA (L,G*,A), RUSKEAA KASTIKETTA (L,G*,A), PERUNOITA, KURKKUSALAATTIA",
                            "kela": "#",
                            "allergenic_ingredients": []
                        },
                        {
                            "category_title": "Makumatka",
                            "price": "10,10\/5,71"
                        },
                        {
                            "title": "BALSAMICO-BROILERIA (L,M,G*,A), LOHKOPERUNOITA",
                            "kela": "#",
                            "allergenic_ingredients": []
                        },
                        {
                            "category_title": "Buffetlounas",
                            "price": "10,70"
                        },
                        {
                            "title": "Lounasbuffet linjastosta",
                            "kela": [],
                            "allergenic_ingredients": []
                        }
                    ]
                },
                {
                    "title": "Keskiviikko 7.10.",
                    "title_abbr": "Ke",
                    "data": [
                        {
                            "category_title": "Salaattilounas",
                            "price": "6,90\/3,06"
                        },
                        {
                            "title": "P\u00e4iv\u00e4n salaatti linjastosta+l\u00e4mmin lis\u00e4ke",
                            "kela": "#",
                            "allergenic_ingredients": [
                                {
                                    "value": "A",
                                    "label": "A"
                                }
                            ]
                        },
                        {
                            "category_title": "Kasvislounas",
                            "price": "8,00\/3,06"
                        },
                        {
                            "title": "H\u00c4RK\u00c4PAPU-LEHTIKAALIPIHVEJ\u00c4 (L,A), LOHKOPERUNOITA, KERMAVIILI-TOMAATTISALSAA",
                            "kela": "#",
                            "allergenic_ingredients": []
                        },
                        {
                            "category_title": "Kotiruokalounas",
                            "price": "9,00\/3,06"
                        },
                        {
                            "title": "PINAATTISTA UUNIKALAA (L,G*,A), PERUNOITA",
                            "kela": "#",
                            "allergenic_ingredients": []
                        },
                        {
                            "category_title": "Makumatka",
                            "price": "10,10\/5,71"
                        },
                        {
                            "title": "PULLED PORK HAMPURILAINEN (L,A), LOHKOPERUNOITA, SEESAM-MAJONEESIA (L,M,G*,A)",
                            "kela": "#",
                            "allergenic_ingredients": []
                        },
                        {
                            "category_title": "Buffetlounas",
                            "price": "10,70"
                        },
                        {
                            "title": "Lounasbuffet linjastosta",
                            "kela": [],
                            "allergenic_ingredients": []
                        }
                    ]
                },
                {
                    "title": "Torstai 8.10.",
                    "title_abbr": "To",
                    "data": [
                        {
                            "category_title": "Salaattilounas",
                            "price": "6,90\/3,06"
                        },
                        {
                            "title": "P\u00e4iv\u00e4n salaatti linjastosta+l\u00e4mmin lis\u00e4ke",
                            "kela": "#",
                            "allergenic_ingredients": [
                                {
                                    "value": "A",
                                    "label": "A"
                                }
                            ]
                        },
                        {
                            "category_title": "Kasvislounas",
                            "price": "8,00\/3,06"
                        },
                        {
                            "title": "TOFU-KASVISKASTIKETTA (L,M,G*,Veg,A), NUUDELEITA",
                            "kela": "#",
                            "allergenic_ingredients": []
                        },
                        {
                            "category_title": "Kotiruokalounas",
                            "price": "9,00\/3,06"
                        },
                        {
                            "title": "CHILI CON CARNEA (L,M,G*,A) RIISI\u00c4",
                            "kela": "#",
                            "allergenic_ingredients": []
                        },
                        {
                            "category_title": "Makumatka",
                            "price": "10,10\/5,71"
                        },
                        {
                            "title": "MUIKKUJA KERMALLA JA PEKONILLA (L,G*,A), PERUNAMUUSIA (L,G*,A)",
                            "kela": "#",
                            "allergenic_ingredients": []
                        },
                        {
                            "category_title": "Buffetlounas",
                            "price": "10,70"
                        },
                        {
                            "title": "Lounasbuffet linjastosta",
                            "kela": [],
                            "allergenic_ingredients": []
                        }
                    ]
                },
                {
                    "title": "Perjantai 9.10.",
                    "title_abbr": "Pe",
                    "data": [
                        {
                            "category_title": "Salaattilounas",
                            "price": "6,90\/3,06"
                        },
                        {
                            "title": "P\u00e4iv\u00e4n salaatti linjastosta+l\u00e4mmin lis\u00e4ke",
                            "kela": "#",
                            "allergenic_ingredients": [
                                {
                                    "value": "A",
                                    "label": "A"
                                }
                            ]
                        },
                        {
                            "category_title": "Kasvislounas",
                            "price": "8,00\/3,06"
                        },
                        {
                            "title": "HERKKUSIENI-MUNAKASTA (L,G*,A)",
                            "kela": "#",
                            "allergenic_ingredients": []
                        },
                        {
                            "category_title": "Kotiruokalounas",
                            "price": "9,00\/3,06"
                        },
                        {
                            "title": "BROILERIKASTIKETTA (L,G*,A), PASTAA",
                            "kela": "#",
                            "allergenic_ingredients": []
                        },
                        {
                            "category_title": "Makumatka",
                            "price": "10,10\/5,71"
                        },
                        {
                            "title": "ROSTOCK-H\u00c4RK\u00c4\u00c4 (L,M,G*,A), RIISI\u00c4",
                            "kela": "#",
                            "allergenic_ingredients": []
                        },
                        {
                            "category_title": "Buffetlounas",
                            "price": "10,70"
                        },
                        {
                            "title": "Lounasbuffet linjastosta",
                            "kela": [],
                            "allergenic_ingredients": []
                        }
                    ]
                }
            ],
            "en": [
                {
                    "title": "Monday 5.10.",
                    "title_abbr": "Mon",
                    "data": [
                        {
                            "category_title": "Salad lunch",
                            "price": "6,90\/3,06"
                        },
                        {
                            "title": "Salad lunch ",
                            "kela": "#",
                            "allergenic_ingredients": [
                                {
                                    "value": "A",
                                    "label": "A"
                                }
                            ]
                        },
                        {
                            "category_title": "Vegetarian lunch",
                            "price": "8,00\/3,06"
                        },
                        {
                            "title": "FALAFEL-CAKES, POTATO WEDGES, LIME-YOGURTSAUCE",
                            "kela": "#",
                            "allergenic_ingredients": []
                        },
                        {
                            "category_title": "Homemade lunch",
                            "price": "9,00\/3,06"
                        },
                        {
                            "title": "BABI KETJAP CHICKEN, RICE",
                            "kela": "#",
                            "allergenic_ingredients": []
                        },
                        {
                            "category_title": "Business lunch",
                            "price": "10,10\/5,71"
                        },
                        {
                            "title": "OVER DONE PORK WITH CRANBERRY-ROSEMARYSAUCE, CREAMPOTATOES",
                            "kela": "#",
                            "allergenic_ingredients": []
                        },
                        {
                            "category_title": "Buffetlunch",
                            "price": "10,70"
                        },
                        {
                            "title": "Buffetlunch",
                            "kela": [],
                            "allergenic_ingredients": []
                        }
                    ]
                },
                {
                    "title": "Tuesday 6.10.",
                    "title_abbr": "Tue",
                    "data": [
                        {
                            "category_title": "Salad lunch",
                            "price": "6,90\/3,06"
                        },
                        {
                            "title": "Salad lunch ",
                            "kela": "#",
                            "allergenic_ingredients": [
                                {
                                    "value": "A",
                                    "label": "A"
                                }
                            ]
                        },
                        {
                            "category_title": "Vegetarian lunch",
                            "price": "8,00\/3,06"
                        },
                        {
                            "title": "MUSHROOM-VEGETABLESAUCE, PASTA",
                            "kela": "#",
                            "allergenic_ingredients": []
                        },
                        {
                            "category_title": "Homemade lunch",
                            "price": "9,00\/3,06"
                        },
                        {
                            "title": "OVEN BAKED SAUSAGES, BROWN SAUCE, POTATOES, CUCUMBER SALAD",
                            "kela": "#",
                            "allergenic_ingredients": []
                        },
                        {
                            "category_title": "Business lunch",
                            "price": "10,10\/5,71"
                        },
                        {
                            "title": "BALSAMICO CHICKEN, POTATO WEDGES",
                            "kela": "#",
                            "allergenic_ingredients": []
                        },
                        {
                            "category_title": "Buffet lunch",
                            "price": "10,70"
                        },
                        {
                            "title": "Buffet lunch",
                            "kela": [],
                            "allergenic_ingredients": []
                        }
                    ]
                },
                {
                    "title": "Wednesday 7.10.",
                    "title_abbr": "Wed",
                    "data": [
                        {
                            "category_title": "Salad lunch",
                            "price": "6,90\/3,06"
                        },
                        {
                            "title": "Salad lunch ",
                            "kela": "#",
                            "allergenic_ingredients": [
                                {
                                    "value": "A",
                                    "label": "A"
                                }
                            ]
                        },
                        {
                            "category_title": "Vegetarian lunch",
                            "price": "8,00\/3,06"
                        },
                        {
                            "title": "BROADBEAN-KALECAKES, POTATO WEDGES,  SOUR CREAM-TOMATOSALSA",
                            "kela": "#",
                            "allergenic_ingredients": []
                        },
                        {
                            "category_title": "Homemade lunch",
                            "price": "9,00\/3,06"
                        },
                        {
                            "title": "OVEN BAKED FISH WITH SPINACH, POTATOES",
                            "kela": "#",
                            "allergenic_ingredients": []
                        },
                        {
                            "category_title": "Business lunch",
                            "price": "10,10\/5,71"
                        },
                        {
                            "title": "PULLED PORK HAMBURGER, POTATO WEDGES, SESAME-MAYONNAISE",
                            "kela": "#",
                            "allergenic_ingredients": []
                        },
                        {
                            "category_title": "Buffet lunch",
                            "price": "10,70"
                        },
                        {
                            "title": "Buffet lunch",
                            "kela": [],
                            "allergenic_ingredients": []
                        }
                    ]
                },
                {
                    "title": "Thursday 8.10.",
                    "title_abbr": "Thu",
                    "data": [
                        {
                            "category_title": "Salad lunch",
                            "price": "6,90\/3,06"
                        },
                        {
                            "title": "Salad lunch ",
                            "kela": "#",
                            "allergenic_ingredients": [
                                {
                                    "value": "A",
                                    "label": "A"
                                }
                            ]
                        },
                        {
                            "category_title": "Vegetarian lunch",
                            "price": "8,00\/3,06"
                        },
                        {
                            "title": "TOFU-VEGETABLESAUCE, NOODLES",
                            "kela": "#",
                            "allergenic_ingredients": []
                        },
                        {
                            "category_title": "Homemade lunch",
                            "price": "9,00\/3,06"
                        },
                        {
                            "title": "CHILI CON CARNE, RICE",
                            "kela": "#",
                            "allergenic_ingredients": []
                        },
                        {
                            "category_title": "Business lunch",
                            "price": "10,10\/5,71"
                        },
                        {
                            "title": "VENDAGES WITH CREAM AND BACON, MASHED POTATOES ",
                            "kela": "#",
                            "allergenic_ingredients": []
                        },
                        {
                            "category_title": "Buffet lunch",
                            "price": "10,70"
                        },
                        {
                            "title": "Buffet lunch",
                            "kela": [],
                            "allergenic_ingredients": []
                        }
                    ]
                },
                {
                    "title": "Friday 9.10.",
                    "title_abbr": "Fri",
                    "data": [
                        {
                            "category_title": "Salad lunch",
                            "price": "6,90\/3,06"
                        },
                        {
                            "title": "Salad lunch ",
                            "kela": "#",
                            "allergenic_ingredients": [
                                {
                                    "value": "A",
                                    "label": "A"
                                }
                            ]
                        },
                        {
                            "category_title": "Vegetarian lunch",
                            "price": "8,00\/3,06"
                        },
                        {
                            "title": "MUSHROOM-OMELETTE",
                            "kela": "#",
                            "allergenic_ingredients": []
                        },
                        {
                            "category_title": "Homemade lunch",
                            "price": "9,00\/3,06"
                        },
                        {
                            "title": "CHICKENSAUCE, PASTA",
                            "kela": "#",
                            "allergenic_ingredients": []
                        },
                        {
                            "category_title": "Business lunch",
                            "price": "10,10\/5,71"
                        },
                        {
                            "title": "BULGOGI-BEEF, RICE",
                            "kela": "#",
                            "allergenic_ingredients": []
                        },
                        {
                            "category_title": "Buffet lunch",
                            "price": "10,70"
                        },
                        {
                            "title": "Lunch buffet",
                            "kela": [],
                            "allergenic_ingredients": []
                        }
                    ]
                }
            ]
        }
    }
}