{
  "RestaurantName": "Itä-Suomen yliopisto Snellmania",
  "RestaurantUrl": "https://www.fazerfoodco.fi/ravintolat/Ravintolat-kaupungeittain/kuopio/ita-suomen-yliopisto--snellmania/",
  "PriceHeader": null,
  "Footer": "Opiskelijalounas 2,02– 4,83 €, henkilökunta 4,35 – 7,38 €, vierailijat 7,70 – 9,40 €. Hyvää ruokahalua! \n\nMuistathan noudattaa ohjeitamme turvallisesta ruokailusta!\n\nxxxxxxxxxxxxxxxxxxxxxxxxxxxxxxxxxxxxxxxxxxxxxxxxxxxxxxxxxxxxxxxxxxxxxxxxxxxxxxxxxxxxxxxxxxxxxxxxxxxxxxxxxxxxxxxxxxxxxxxxxxxxxxxxxxxxxxxxxxxxxxx\nHuomioithan, että ravintolassa käytetyt raaka-aineet saattavat vaihtua suunnitellusta ja siten verkkosivuilla julkaistut dieettimerkinnät ja tuoteselosteet voivat poiketa todellisesta tarjonnasta. Kehotamme allergisia henkilöitä aina tarkastamaan tarjotun ruuan soveltuvuus omaan ruokavalioon ravintolassa. Kiitos ymmärryksestänne.",
  "MenusForDays": [
    {
      "Date": "2020-10-12T00:00:00+02:00",
      "LunchTime": null,
      "SetMenus": [
        {
          "SortOrder": 0,
          "Name": "Lounas",
          "Price": "Op 2,02 € / Hk 4,35 € / Vierailija 7,70 €",
          "Components": [
            "Mustapapupihvi (G ,L ,M ,Veg ,VS)",
            "Lime-yrttimajoneesia (A ,G ,L ,M ,Veg)",
            "Paahdettua perunaa ja kasviksia (A ,G ,L ,M ,Veg)"
          ]
        },
        {
          "SortOrder": 0,
          "Name": "Kasviskeitto",
          "Price": "Op 1,59 € / Hk 3,90 € / Vierailija 6,50 €",
          "Components": [
            "Porkkana-maissisosekeittoa (* ,A ,G ,L)",
            "Paahdettuja auringonkukansiemeniä (G ,L ,M ,Veg)"
          ]
        },
        {
          "SortOrder": 0,
          "Name": "Lounas",
          "Price": "Op 2,02 € / Hk 4,35 € / Vierailija 7,70 €",
          "Components": [
            "Lihapyöryköitä (A ,L ,M)",
            "Papas arrugadas -perunoita (* ,G ,L ,M ,Veg)",
            "BBQ-kastiketta (* ,A ,G ,L ,M)"
          ]
        },
        {
          "SortOrder": 0,
          "Name": "Jälkiruoka",
          "Price": "Op 1,40 € / Hk 1,40 € / Vierailija 1,50 €",
          "Components": [
            "Mansikkasmoothie (A ,G ,L)"
          ]
        }
      ]
    },
    {
      "Date": "2020-10-13T00:00:00+02:00",
      "LunchTime": null,
      "SetMenus": [
        {
          "SortOrder": 0,
          "Name": "Kasvislounas",
          "Price": "Op 2,02 € / Hk 4,35 € / Vierailija 7,70 €",
          "Components": [
            "Punajuuri-lehtikaalilasagnettea (A ,L)"
          ]
        },
        {
          "SortOrder": 0,
          "Name": "Lounas",
          "Price": "Op 2,02 € / Hk 4,35 € / Vierailija 7,70 €",
          "Components": [
            "Rapeita kalapaloja (* ,A ,L ,M)",
            "Tartarkastiketta (A ,G ,L)",
            "Perunasosetta (* ,A ,G ,L)"
          ]
        },
        {
          "SortOrder": 0,
          "Name": "Lounas",
          "Price": "Op 4,83 € / Hk 7,30 € / Vierailija 9,40€",
          "Components": [
            "Parmesankuorrutettu broilerinfilee (* ,A ,L)",
            "Paahdettuja juureksia (G ,L ,M ,Veg)",
            "Currymajoneesia (A ,G ,L ,M)"
          ]
        },
        {
          "SortOrder": 0,
          "Name": "Jälkiruoka",
          "Price": "Op 1,40 € / Hk 1,40 € / Vierailija 1,50 €",
          "Components": [
            "Omena-kanelirahkaa (A ,G ,L)"
          ]
        }
      ]
    },
    {
      "Date": "2020-10-14T00:00:00+02:00",
      "LunchTime": null,
      "SetMenus": [
        {
          "SortOrder": 0,
          "Name": "Kasvislounas",
          "Price": "Op 2,02 € / Hk 4,35 € / Vierailija 7,70 €",
          "Components": [
            "Quornia curry-kasviskastikkeessa (* ,A ,G ,L ,M ,VS)",
            "Höyrytettyä tummaa riisiä (* ,G ,L ,M ,Veg)"
          ]
        },
        {
          "SortOrder": 0,
          "Name": null,
          "Price": "Op 1,59 € / Hk 3,90 € / 6,50 €",
          "Components": [
            "Thai-linssikeittoa (* ,G ,L ,M ,Veg ,VS)",
            "Paahdettuja auringonkukansiemeniä (G ,L ,M ,Veg)"
          ]
        },
        {
          "SortOrder": 0,
          "Name": "Lounas",
          "Price": "Op 2,02 € / Hk 4,35 € / Vierailija 7,70 €",
          "Components": [
            "Broilerinugetteja (A ,L ,M)",
            "Currymajoneesia (A ,G ,L ,M)",
            "Höyrytettyä tummaa riisiä (* ,G ,L ,M ,Veg)"
          ]
        },
        {
          "SortOrder": 0,
          "Name": "Jälkiruoka",
          "Price": "Op 1,40 € / Hk 1,40 € / Vierailija 1,50 €",
          "Components": [
            "Mansikka-päärynäfruitie (G ,L ,M ,Veg)"
          ]
        }
      ]
    },
    {
      "Date": "2020-10-15T00:00:00+02:00",
      "LunchTime": null,
      "SetMenus": [
        {
          "SortOrder": 0,
          "Name": "Lounas",
          "Price": "Op 2,02 € / Hk 4,35 € / Vierailija 7,70 €",
          "Components": [
            "Kukkakaali-punajuurigratiinia (* ,A ,L ,M ,Veg)"
          ]
        },
        {
          "SortOrder": 0,
          "Name": "Kasviskeitto",
          "Price": "Op 1,59 € / Hk 3,90 € / Vierailija 6,50 €",
          "Components": [
            "Yrtti-perunasosekeittoa (* ,A ,G ,L)",
            "Paahdettuja auringonkukansiemeniä (G ,L ,M ,Veg)"
          ]
        },
        {
          "SortOrder": 0,
          "Name": "Lounas",
          "Price": "Op 2,02 € / Hk 4,35 € / Vierailija 7,70 €",
          "Components": [
            "Uunimakkara sipuli-juustotäytteellä (A ,G ,L)",
            "Sinappikastiketta (A ,G ,L)",
            "Perunasosetta (* ,A ,G ,L)"
          ]
        },
        {
          "SortOrder": 0,
          "Name": "Jälkiruoka",
          "Price": "Op 1,40 € / Hk 1,40 € / Vierailija 1,50 €",
          "Components": [
            "Mustaherukka-kaurapiirakkaa (A ,L)",
            "Vaniljakermavaahtoa (A ,G ,L)"
          ]
        }
      ]
    },
    {
      "Date": "2020-10-16T00:00:00+02:00",
      "LunchTime": null,
      "SetMenus": [
        {
          "SortOrder": 0,
          "Name": "Lounas",
          "Price": "Op 2,02 € / Hk 4,35 € / Vierailija 7,70 €",
          "Components": [
            "Soija-kasvisbolognesea (* ,A ,G ,L ,M ,Veg)",
            "Luomutäysjyväkierrepastaa (* ,A ,L ,M ,Veg)"
          ]
        },
        {
          "SortOrder": 0,
          "Name": "Kasviskeitto",
          "Price": "Op 1,59 € / Hk 3,90 € / Vierailija 6,50 €",
          "Components": [
            "Juuressosekeittoa (* ,A ,G ,L)",
            "Paahdettuja auringonkukansiemeniä (G ,L ,M ,Veg)"
          ]
        },
        {
          "SortOrder": 0,
          "Name": "Lounas",
          "Price": "Op 2,02 € / Hk 4,35 € / Vierailija 7,70 €",
          "Components": [
            "Broileripataa Mexicali (G ,L ,M ,VS)",
            "Papas arrugadas -perunoita (* ,G ,L ,M ,Veg)"
          ]
        },
        {
          "SortOrder": 0,
          "Name": "Jälkiruoka",
          "Price": "Op 1,40 € / Hk 1,40 € / Vierailija 1,50 €",
          "Components": [
            "Mustaherukka-kaurapiirakkaa (A ,L)",
            "Vaniljakermavaahtoa (A ,G ,L)"
          ]
        }
      ]
    },
    {
      "Date": "2020-10-17T00:00:00+02:00",
      "LunchTime": null,
      "SetMenus": []
    },
    {
      "Date": "2020-10-18T00:00:00+02:00",
      "LunchTime": null,
      "SetMenus": []
    }
  ],
  "ErrorText": null
}