<?xml version="1.0" encoding="UTF-8" standalone="no"?>
<!DOCTYPE svg PUBLIC "-//W3C//DTD SVG 1.1//EN" "http://www.w3.org/Graphics/SVG/1.1/DTD/svg11.dtd">
<svg xmlns="http://www.w3.org/2000/svg" xmlns:xlink="http://www.w3.org/1999/xlink" version="1.1" width="616.888pt" height="277.63pt" viewBox="0 0 616.888 277.63">
<g enable-background="new">
<g id="Layer-1" data-name="Layer">
</g>
<g id="Layer-1" data-name="Layer">
<clipPath id="cp0">
<path transform="matrix(1,0,0,-1,0,277.63)" d="M 0 277.63 L 616.888 277.63 L 616.888 0 L 0 0 Z "/>
</clipPath>
<g clip-path="url(#cp0)">
<path transform="matrix(1,0,0,-1,106.9766,163.4)" d="M 0 0 C 2.304 2.816 6.526 3.197 9.34 .897 C 14.972 -3.71 24.695 -9.086 33.777 -8.958 C 40.176 -8.958 45.933 -7.036 49.774 -4.223 C 53.612 -1.407 55.275 1.791 55.275 4.991 C 55.275 6.654 54.891 7.804 54.122 9.085 C 53.356 10.364 52.203 11.644 50.283 12.924 C 46.573 15.354 40.304 17.529 32.756 18.937 L 32.5 18.937 C 26.486 20.089 20.857 21.624 15.994 23.927 C 11.13 26.23 6.911 29.43 4.095 33.907 C 2.176 36.978 1.15 40.561 1.15 44.399 C 1.15 52.076 5.501 58.73 11.387 63.081 C 17.4 67.43 25.208 69.861 33.521 69.861 C 45.805 69.861 54.891 63.848 61.417 59.625 C 64.357 57.578 65.255 53.483 63.208 50.541 C 61.289 47.47 57.194 46.575 54.122 48.622 C 47.599 52.971 41.329 56.811 33.521 56.811 C 27.765 56.811 22.647 55.018 19.194 52.46 C 15.737 49.902 14.331 47.085 14.331 44.399 C 14.331 42.863 14.587 41.839 15.225 40.816 C 15.865 39.792 17.019 38.641 18.682 37.49 C 22.007 35.187 27.765 33.14 34.675 31.86 L 34.932 31.86 C 41.457 30.58 47.471 28.917 52.587 26.485 C 57.835 23.927 62.438 20.6 65.383 15.867 C 67.302 12.795 68.452 8.958 68.452 4.991 C 68.452 -3.198 63.849 -10.236 57.45 -14.84 C 51.181 -19.447 42.863 -22.135 33.777 -22.135 C 19.96 -22.007 8.317 -15.096 1.022 -9.342 C -1.79 -7.036 -2.175 -2.813 0 0 " fill="#cc1336"/>
<path transform="matrix(1,0,0,-1,141.7793,55.0231)" d="M 0 0 C 20.238 0 39.063 -7.06 53.417 -18.119 C 54.83 -19.296 55.301 -21.179 54.358 -22.356 C 52.949 -23.767 51.065 -24.002 49.89 -22.825 C 36.238 -12.237 19.06 -6.118 0 -6.118 C -43.536 -6.118 -79.306 -40.71 -79.306 -83.304 C -79.306 -126.37 -43.536 -160.961 0 -160.961 C 18.825 -160.961 36.004 -154.845 49.652 -144.253 C 51.065 -143.311 52.949 -143.311 54.125 -144.724 C 55.301 -145.9 54.83 -147.784 53.417 -148.959 C 38.593 -160.022 20.238 -167.08 0 -167.08 C -47.066 -166.846 -85.425 -129.429 -85.425 -83.304 C -85.425 -37.652 -47.066 0 0 0 " fill="#030505"/>
<path transform="matrix(1,0,0,-1,230.2441,146.4088)" d="M 0 0 C 0 4.684 -1.673 8.698 -4.351 11.487 C -7.026 14.499 -10.819 16.06 -14.722 16.06 C -18.736 16.06 -22.529 14.499 -25.096 11.487 C -27.771 8.698 -29.334 4.684 -29.334 0 C -29.334 -4.574 -27.771 -8.588 -25.096 -11.487 C -22.529 -14.274 -18.736 -15.838 -14.722 -15.838 C -10.819 -15.838 -7.026 -14.274 -4.351 -11.487 C -1.673 -8.588 0 -4.574 0 0 M 11.821 0 L 11.821 -21.861 C 11.821 -25.097 9.146 -27.772 5.91 -27.772 C 3.011 -27.772 .781 -25.654 .111 -22.976 C -4.127 -25.988 -9.147 -27.772 -14.722 -27.772 C -22.305 -27.772 -28.886 -24.648 -33.682 -19.631 C -38.478 -14.499 -41.269 -7.585 -41.269 0 C -41.269 7.695 -38.478 14.61 -33.682 19.629 C -28.886 24.758 -22.305 27.993 -14.722 27.993 C -9.147 27.993 -4.127 26.098 .111 23.086 C .781 25.875 3.011 27.993 5.91 27.993 C 9.146 27.993 11.821 25.317 11.821 21.971 Z " fill="#cc1336"/>
<path transform="matrix(1,0,0,-1,298.2852,124.3268)" d="M 0 0 C 0 -3.123 -2.565 -5.911 -5.91 -5.911 C -8.477 -5.911 -10.707 -6.581 -12.604 -8.03 C -14.721 -9.368 -16.396 -11.265 -17.732 -13.384 C -20.411 -16.953 -21.75 -21.19 -22.308 -22.752 L -22.308 -43.943 C -22.308 -47.179 -25.095 -49.854 -28.439 -49.854 C -31.676 -49.854 -34.351 -47.179 -34.351 -43.943 L -34.351 0 C -34.351 3.235 -31.676 5.8 -28.439 5.8 C -25.095 5.8 -22.308 3.235 -22.308 0 L -22.308 -.78 C -21.638 0 -20.744 .892 -19.966 1.451 C -16.284 3.903 -11.488 5.911 -5.91 5.8 C -2.565 5.8 0 3.235 0 0 " fill="#cc1336"/>
<path transform="matrix(1,0,0,-1,345.4678,146.4088)" d="M 0 0 C 0 4.684 -1.673 8.698 -4.351 11.487 C -7.026 14.499 -10.819 16.06 -14.722 16.06 C -18.736 16.06 -22.529 14.499 -25.096 11.487 C -27.771 8.698 -29.334 4.684 -29.334 0 C -29.334 -4.574 -27.771 -8.588 -25.096 -11.487 C -22.529 -14.274 -18.736 -15.838 -14.722 -15.838 C -10.819 -15.838 -7.026 -14.274 -4.351 -11.487 C -1.673 -8.588 0 -4.574 0 0 M 11.82 0 L 11.82 -21.861 C 11.82 -25.097 9.145 -27.772 5.909 -27.772 C 3.01 -27.772 .781 -25.654 .112 -22.976 C -4.127 -25.988 -9.144 -27.772 -14.722 -27.772 C -22.305 -27.772 -28.886 -24.648 -33.682 -19.631 C -38.478 -14.499 -41.265 -7.585 -41.265 0 C -41.265 7.695 -38.478 14.61 -33.682 19.629 C -28.886 24.758 -22.305 27.993 -14.722 27.993 C -9.144 27.993 -4.127 26.098 .112 23.086 C .781 25.875 3.01 27.993 5.909 27.993 C 9.145 27.993 11.82 25.317 11.82 21.971 Z " fill="#cc1336"/>
<path transform="matrix(1,0,0,-1,424.5479,141.61441)" d="M 0 0 L 0 -26.656 C 0 -29.892 -2.563 -32.566 -5.799 -32.566 C -8.923 -32.566 -11.71 -29.892 -11.71 -26.656 L -11.71 0 C -11.71 6.247 -16.951 11.266 -23.308 11.266 C -29.555 11.266 -34.463 6.247 -34.463 0 L -34.463 -26.656 C -34.463 -26.989 -34.463 -27.325 -34.684 -27.771 C -35.241 -30.449 -37.695 -32.566 -40.595 -32.566 C -43.943 -32.566 -46.506 -29.892 -46.506 -26.656 L -46.506 0 L -46.506 17.288 C -46.506 20.523 -43.943 23.198 -40.595 23.198 C -38.253 23.198 -36.136 21.861 -35.133 19.741 C -31.784 21.861 -27.658 23.198 -23.308 23.198 C -10.371 23.198 0 12.604 0 0 " fill="#cc1336"/>
<path transform="matrix(1,0,0,-1,454.6699,140.83261)" d="M 0 0 L 31.563 0 C 30.448 4.461 24.759 11.042 15.055 11.822 C 5.574 11.376 .891 4.572 0 0 M -12.158 -5.466 C -12.046 9.703 -.225 22.417 15.055 22.417 C 29.555 22.417 41.043 11.599 41.934 -3.457 L 41.934 -4.016 C 41.934 -4.239 41.934 -4.796 41.822 -5.019 C 41.488 -7.696 39.146 -9.48 36.023 -9.48 L .558 -9.48 C 1.114 -12.046 2.342 -14.946 4.348 -16.842 C 6.689 -19.518 11.152 -21.526 15.055 -21.863 C 19.072 -22.196 23.868 -21.19 26.655 -19.072 C 28.997 -16.618 33.569 -16.955 35.021 -18.736 C 36.469 -20.299 37.587 -23.644 35.021 -25.989 C 29.555 -31.006 22.974 -33.348 15.055 -33.348 C -.225 -33.236 -12.046 -20.632 -12.158 -5.466 " fill="#cc1336"/>
<path transform="matrix(1,0,0,-1,560.8525,141.61441)" d="M 0 0 L 0 -26.656 C 0 -29.892 -2.563 -32.566 -5.799 -32.566 C -8.923 -32.566 -11.71 -29.892 -11.71 -26.656 L -11.71 0 C -11.71 6.247 -16.951 11.266 -23.308 11.266 C -29.555 11.266 -34.463 6.247 -34.463 0 L -34.463 -26.656 C -34.463 -26.989 -34.463 -27.325 -34.685 -27.771 C -35.241 -30.449 -37.695 -32.566 -40.595 -32.566 C -43.943 -32.566 -46.506 -29.892 -46.506 -26.656 L -46.506 0 L -46.506 17.288 C -46.506 20.523 -43.943 23.198 -40.595 23.198 C -38.253 23.198 -36.136 21.861 -35.133 19.741 C -31.785 21.861 -27.658 23.198 -23.308 23.198 C -10.371 23.198 0 12.604 0 0 " fill="#cc1336"/>
</g>
</g>
</g>
</svg>
